0	JMP	0	1
1	INT	0	3
2	JMP	0	29
3	INT	0	3
4	INT	0	1
5	LOD	0	-1
6	STO	0	3
7	LOD	0	3
8	LIT	0	1
9	OPR	0	13
10	JMC	0	14
11	LOD	0	3
12	STO	0	-2
13	RET	0	0
14	INT	0	1
15	LOD	0	3
16	LIT	0	1
17	OPR	0	3
18	CAL	1	3
19	INT	0	-1
20	INT	0	1
21	LOD	0	3
22	LIT	0	2
23	OPR	0	3
24	CAL	1	3
25	INT	0	-1
26	OPR	0	2
27	STO	0	-2
28	RET	0	0
29	INT	0	1
30	INT	0	1
31	LIT	0	10
32	CAL	0	3
33	INT	0	-1
34	STO	0	3
35	RET	0	0
